module gitlab.com/MaxPod/viper

go 1.12

require (
	github.com/bketelsen/crypt v0.0.3-0.20200106085610-5cbc8cc4026c
	github.com/coreos/bbolt v1.3.2 // indirect
	github.com/coreos/go-systemd v0.0.0-20190321100706-95778dfbb74e // indirect
	github.com/coreos/pkg v0.0.0-20180928190104-399ea9e2e55f // indirect
	github.com/dgrijalva/jwt-go v3.2.0+incompatible // indirect
	github.com/fsnotify/fsnotify v1.4.7
	github.com/gogo/protobuf v1.2.1 // indirect
	github.com/gorilla/websocket v1.4.2 // indirect
	github.com/grpc-ecosystem/go-grpc-middleware v1.0.0 // indirect
	github.com/grpc-ecosystem/go-grpc-prometheus v1.2.0 // indirect
	github.com/grpc-ecosystem/grpc-gateway v1.9.0 // indirect
	github.com/hashicorp/hcl v1.0.0
	github.com/jonboulle/clockwork v0.1.0 // indirect
	github.com/magiconair/properties v1.8.1
	github.com/mitchellh/mapstructure v1.1.2
	github.com/pelletier/go-toml v1.2.0
	github.com/prometheus/client_golang v0.9.3 // indirect
	github.com/smartystreets/goconvey v1.6.4 // indirect
	github.com/soheilhy/cmux v0.1.4 // indirect
	github.com/spf13/afero v1.1.2
	github.com/spf13/cast v1.3.0
	github.com/spf13/jwalterweatherman v1.0.0
	github.com/spf13/pflag v1.0.3
	github.com/spf13/viper v1.7.1
	github.com/stretchr/testify v1.4.0
	github.com/subosito/gotenv v1.2.0
	github.com/tmc/grpc-websocket-proxy v0.0.0-20190109142713-0ad062ec5ee5 // indirect
	github.com/xiang90/probing v0.0.0-20190116061207-43a291ad63a2 // indirect
	gitlab.com/MaxPod/crypt v1.0.0
	go.etcd.io/bbolt v1.3.2 // indirect
	go.uber.org/atomic v1.4.0 // indirect
	go.uber.org/multierr v1.1.0 // indirect
	go.uber.org/zap v1.10.0 // indirect
	gopkg.in/ini.v1 v1.51.0
	gopkg.in/yaml.v2 v2.2.4
)
